%YAML 1.1
%TAG !u! tag:unity3d.com,2011:
--- !u!687078895 &4343727234628468602
SpriteAtlas:
  m_ObjectHideFlags: 0
  m_CorrespondingSourceObject: {fileID: 0}
  m_PrefabInstance: {fileID: 0}
  m_PrefabAsset: {fileID: 0}
  m_Name: FeliceJogging
  m_EditorData:
    serializedVersion: 2
    textureSettings:
      serializedVersion: 2
      anisoLevel: 1
      compressionQuality: 50
      maxTextureSize: 2048
      textureCompression: 0
      filterMode: 1
      generateMipMaps: 0
      readable: 0
      crunchedCompression: 0
      sRGB: 1
    platformSettings: []
    packingSettings:
      serializedVersion: 2
      padding: 4
      blockOffset: 1
      allowAlphaSplitting: 0
      enableRotation: 1
      enableTightPacking: 1
    variantMultiplier: 1
    packables:
    - {fileID: 102900000, guid: c6962457d7e1d7f46b45760d55e09fc4, type: 3}
    bindAsDefault: 1
  m_MasterAtlas: {fileID: 0}
  m_PackedSprites:
  - {fileID: 21300000, guid: 236d0f408e75fd648b0cc9b95f8c52a0, type: 3}
  - {fileID: 21300000, guid: cb6009a1256eb8b4ab0fd7e5cc9b4aa2, type: 3}
  - {fileID: 21300000, guid: 265cd7d20dbbff041a0bba46b79ca0af, type: 3}
  - {fileID: 21300000, guid: 0f9acbf95c567f04f98775918a9e8c7a, type: 3}
  - {fileID: 21300000, guid: 31dc335ad1b2c7841888f1096c41186f, type: 3}
  - {fileID: 21300000, guid: 33a11daa9bf0b444e8feac816d2fc40f, type: 3}
  - {fileID: 21300000, guid: e30cef4b989c3dc44bcff0fd7bd24c86, type: 3}
  - {fileID: 21300000, guid: 8d67309b4eed8624e9e2cce9cc91e2ea, type: 3}
  - {fileID: 21300000, guid: 6a65697da03b31b42b08d4ecc3de3edd, type: 3}
  - {fileID: 21300000, guid: 3c77b98d2d2ce7a4cb80e27521530a4c, type: 3}
  - {fileID: 21300000, guid: b7139cdec73395e4fbf7fbb0b6f2cbaa, type: 3}
  - {fileID: 21300000, guid: 94c971ee70700aa48b5f9ec1e173f8ab, type: 3}
  m_PackedSpriteNamesToIndex:
  - Felice_Jogging_Frame5_v2
  - Felice_Jogging_Frame7_v2
  - Felice_Jogging_Frame3_v2
  - Felice_Jogging_Frame10_v2
  - Felice_Jogging_Frame6_v2
  - Felice_Jogging_Frame1_v2
  - Felice_Jogging_Frame8_v2
  - Felice_Jogging_Frame2_v2
  - Felice_Jogging_Frame4_v2
  - Felice_Jogging_Frame11_v2
  - Felice_Jogging_Frame12_v2
  - Felice_Jogging_Frame9_v2
  m_Tag: FeliceJogging
  m_IsVariant: 0
